poule,datum,diashow,team1,team2,score1,score2,veld,tijd,scheidsrechter
"Vrijdag 1",2022-06-03,1,"Alliance '22 JO15-1","Overbos JO15-1",,,1,18:00,"M. Rademakers"
"Vrijdag 1",2022-06-03,1,"Kon. HFC JO15-1 zo.","Westfriezen JO15-1",,,2,18:00,"G. v.d. Leeuw"
"Vrijdag 1",2022-06-03,1,"Westfriezen JO15-1","Alliance '22 JO15-1",,,1,18:25,"M. Prosee"
"Vrijdag 1",2022-06-03,1,"Overbos JO15-1","Kon. HFC JO15-1 zo.",,,2,18:25,"H. Jonker"
"Vrijdag 1",2022-06-03,1,"Alliance '22 JO15-1","Kon. HFC JO15-1 zo.",,,1,19:15,"M. Prosee"
"Vrijdag 1",2022-06-03,1,"Westfriezen JO15-1","Overbos JO15-1",,,2,19:15,"H. Jonker"
"Vrijdag 2",2022-06-03,1,"Alliance '22 JO15-2","Haarlem Kennemerland JO15-2",,,1,18:50,"G. v.d. Leeuw"
"Vrijdag 2",2022-06-03,1,"DIOS JO15-2","DSOV JO15-1",,,2,18:50,"M. Rademakers"
"Vrijdag 2",2022-06-03,1,"DSOV JO15-1","Alliance '22 JO15-2",,,1,19:40,"M. Rademakers"
"Vrijdag 2",2022-06-03,1,"Haarlem Kennemerland JO15-2","DIOS JO15-2",,,2,19:40,"G. v.d. Leeuw"
"Vrijdag 2",2022-06-03,1,"Alliance '22 JO15-2","DIOS JO15-2",,,1,20:30,"G. v.d. Leeuw"
"Vrijdag 2",2022-06-03,1,"DSOV JO15-1","Haarlem Kennemerland JO15-2",,,2,20:30,"M. Rademakers"
"Vrijdag 3",2022-06-03,1,"Alliance '22 JO14-1","DSS JO14-2",,,1,20:05,"M. Prosee"
"Vrijdag 3",2022-06-03,1,"SV Odijk JO14-1","De Foresters JO14-2",,,2,20:05,"H. Jonker"
"Vrijdag 3",2022-06-03,1,"De Foresters JO14-2","Alliance '22 JO14-1",,,1,20:55,"M. Prosee"
"Vrijdag 3",2022-06-03,1,"DSS JO14-2","SV Odijk JO14-1",,,2,20:55,"H. Jonker"
"Vrijdag 3",2022-06-03,1,"Alliance '22 JO14-1","SV Odijk JO14-1",,,1,21:20,"M. Rademakers"
"Vrijdag 3",2022-06-03,1,"De Foresters JO14-2","DSS JO14-2",,,2,21:20,"G. v.d. Leeuw"
"Vrijdag 4",2022-06-03,1,"Alliance '22 JO12-1","HBC JO12-1",,,3,18:00," "
"Vrijdag 4",2022-06-03,1,"DSS JO12-1","AFC IJburg JO12-1",,,3,18:25," "
"Vrijdag 4",2022-06-03,1,"AFC IJburg JO12-1","Alliance '22 JO12-1",,,3,18:50," "
"Vrijdag 4",2022-06-03,1,"HBC JO12-1","DSS JO12-1",,,3,19:15," "
"Vrijdag 4",2022-06-03,1,"Alliance '22 JO12-1","DSS JO12-1",,,3,19:40," "
"Vrijdag 4",2022-06-03,1,"AFC IJburg JO12-1","HBC JO12-1",,,3,20:05," "
"Zaterdag 1 / Veld 2A",2022-06-04,2,"Alliance '22 JO8-1","ASV De Dijk JO8-1",,,"2A",08:30,"Alliance"
"Zaterdag 1 / Veld 2A",2022-06-04,2,"Hoofddorp JO8-1","VSV JO8-1",,,"2A",08:55,"Hoofddorp"
"Zaterdag 1 / Veld 2A",2022-06-04,2,"VSV JO8-1","Alliance '22 JO8-1",,,"2A",09:20,"VSV"
"Zaterdag 1 / Veld 2A",2022-06-04,2,"ASV De Dijk JO8-1","Hoofddorp JO8-1",,,"2A",09:45,"ASV de Dijk"
"Zaterdag 1 / Veld 2A",2022-06-04,2,"Alliance '22 JO8-1","Hoofddorp JO8-1",,,"2A",10:10,"Alliance"
"Zaterdag 1 / Veld 2A",2022-06-04,2,"VSV JO8-1","ASV De Dijk JO8-1",,,"2A",10:35,"VSV"
"Zaterdag 1 / Veld 2B",2022-06-04,2,"Alliance '22 JO8-2","Alliance '22 JO8-3",,,"2B",08:30,"Alliance"
"Zaterdag 1 / Veld 2B",2022-06-04,2,"WV HEDW JO8-2","ODIN ‘59 JO8-2",,,"2B",08:55,"ODIN ‘59"
"Zaterdag 1 / Veld 2B",2022-06-04,2,"ODIN ‘59 JO8-2","Alliance '22 JO8-2",,,"2B",09:20,"Alliance"
"Zaterdag 1 / Veld 2B",2022-06-04,2,"Alliance '22 JO8-3","WV HEDW JO8-2",,,"2B",09:45,"ODIN ‘59"
"Zaterdag 1 / Veld 2B",2022-06-04,2,"Alliance '22 JO8-2","WV HEDW JO8-2",,,"2B",10:10,"Alliance"
"Zaterdag 1 / Veld 2B",2022-06-04,2,"ODIN ‘59 JO8-2","Alliance '22 JO8-3",,,"2B",10:35,"WV HEDW"
"Zaterdag 1 / Veld 2C",2022-06-04,2,"Alliance '22 JO8-4","SVIJ JO8-1",,,"2C",08:30,"Alliance"
"Zaterdag 1 / Veld 2C",2022-06-04,2,"DSS JO8-3","ODIN ‘59 JO8-3",,,"2C",08:55,"DSS"
"Zaterdag 1 / Veld 2C",2022-06-04,2,"ODIN ‘59 JO8-3","Alliance '22 JO8-4",,,"2C",09:20,"ODIN ‘59"
"Zaterdag 1 / Veld 2C",2022-06-04,2,"SVIJ JO8-1","DSS JO8-3",,,"2C",09:45,"SVIJ"
"Zaterdag 1 / Veld 2C",2022-06-04,2,"Alliance '22 JO8-4","DSS JO8-3",,,"2C",10:10,"Alliance"
"Zaterdag 1 / Veld 2C",2022-06-04,2,"ODIN ‘59 JO8-3","SVIJ JO8-1",,,"2C",10:35,"ODIN ‘59"
"Zaterdag 1 / Veld 2D",2022-06-04,2,"Alliance '22 JO8-5","Alliance '22 JO8-7",,,"2D",08:30,"Alliance"
"Zaterdag 1 / Veld 2D",2022-06-04,2,"Geel Wit JO8-3","DSS JO8-9 j/m",,,"2D",08:55,"DSS"
"Zaterdag 1 / Veld 2D",2022-06-04,2,"DSS JO8-9 j/m","Alliance '22 JO8-5",,,"2D",09:20,"Alliance"
"Zaterdag 1 / Veld 2D",2022-06-04,2,"Alliance '22 JO8-7","Geel Wit JO8-3",,,"2D",09:45,"DSS"
"Zaterdag 1 / Veld 2D",2022-06-04,2,"Alliance '22 JO8-5","Geel Wit JO8-3",,,"2D",10:10,"Alliance"
"Zaterdag 1 / Veld 2D",2022-06-04,2,"DSS JO8-9 j/m","Alliance '22 JO8-7",,,"2D",10:35,"Geel Wit"
"Zaterdag 1 / Veld 1A",2022-06-04,2,"Alliance '22 JO11-1","Spirit ‘30 JO11-1",,,"1A",08:30," "
"Zaterdag 1 / Veld 1A",2022-06-04,2,"SVIJ JO11-1","DSS JO11-1",,,"1A",08:55," "
"Zaterdag 1 / Veld 1A",2022-06-04,2,"DSS JO11-1","Alliance '22 JO11-1",,,"1A",09:20," "
"Zaterdag 1 / Veld 1A",2022-06-04,2,"Spirit ‘30 JO11-1","SVIJ JO11-1",,,"1A",09:45," "
"Zaterdag 1 / Veld 1A",2022-06-04,2,"Alliance '22 JO11-1","SVIJ JO11-1",,,"1A",10:10," "
"Zaterdag 1 / Veld 1A",2022-06-04,2,"DSS JO11-1","Spirit ‘30 JO11-1",,,"1A",10:35," "
"Zaterdag 1 / Veld 1B",2022-06-04,2,"Alliance '22 JO11-2","Spirit ‘30 JO11-2",,,"1B",08:30," "
"Zaterdag 1 / Veld 1B",2022-06-04,2,"Geel Wit JO11-1","DSS JO11-3",,,"1B",08:55," "
"Zaterdag 1 / Veld 1B",2022-06-04,2,"DSS JO11-3","Alliance '22 JO11-2",,,"1B",09:20," "
"Zaterdag 1 / Veld 1B",2022-06-04,2,"Spirit ‘30 JO11-2","Geel Wit JO11-1",,,"1B",09:45," "
"Zaterdag 1 / Veld 1B",2022-06-04,2,"Alliance '22 JO11-2","Geel Wit JO11-1",,,"1B",10:10," "
"Zaterdag 1 / Veld 1B",2022-06-04,2,"DSS JO11-3","Spirit ‘30 JO11-2",,,"1B",10:35," "
"Zaterdag 1 / Veld 3",2022-06-04,2,"Alliance '22 JO11-3","Alliance '22 JO11-4",,,3,08:30," "
"Zaterdag 1 / Veld 3",2022-06-04,2,"Voetbalschool Vedette JO11","DIOS JO11-4",,,3,08:55," "
"Zaterdag 1 / Veld 3",2022-06-04,2,"DIOS JO11-4","Alliance '22 JO11-3",,,3,09:20," "
"Zaterdag 1 / Veld 3",2022-06-04,2,"Alliance '22 JO11-4","Voetbalschool Vedette JO11",,,3,09:45," "
"Zaterdag 1 / Veld 3",2022-06-04,2,"Alliance '22 JO11-3","Voetbalschool Vedette JO11",,,3,10:10," "
"Zaterdag 1 / Veld 3",2022-06-04,2,"DIOS JO11-4","Alliance '22 JO11-4",,,3,10:35," "
"Zaterdag 2 / Veld 2A",2022-06-04,3,"Alliance '22 JO9-1","DWO JO9-1",,,"2A",11:30,"Alliance"
"Zaterdag 2 / Veld 2A",2022-06-04,3,"WV HEDW JO9-2","Bloemendaal JO9-1",,,"2A",11:55,"WV HEDW"
"Zaterdag 2 / Veld 2A",2022-06-04,3,"Bloemendaal JO9-1","Alliance '22 JO9-1",,,"2A",12:20,"Bloemendaal"
"Zaterdag 2 / Veld 2A",2022-06-04,3,"DWO JO9-1","WV HEDW JO9-2",,,"2A",12:45,"DWO"
"Zaterdag 2 / Veld 2A",2022-06-04,3,"Alliance '22 JO9-1","WV HEDW JO9-2",,,"2A",13:10,"Alliance"
"Zaterdag 2 / Veld 2A",2022-06-04,3,"Bloemendaal JO9-1","DWO JO9-1",,,"2A",13:35,"Bloemendaal"
"Zaterdag 2 / Veld 2B",2022-06-04,3,"Alliance '22 JO9-2","DWO JO9-2",,,"2B",11:30,"Alliance"
"Zaterdag 2 / Veld 2B",2022-06-04,3,"Geel Wit JO9-1","AS ‘80 JO9-7",,,"2B",11:55,"Geel Wit"
"Zaterdag 2 / Veld 2B",2022-06-04,3,"AS ‘80 JO9-7","Alliance '22 JO9-2",,,"2B",12:20,"AS ‘80"
"Zaterdag 2 / Veld 2B",2022-06-04,3,"DWO JO9-2","Geel Wit JO9-1",,,"2B",12:45,"DWO"
"Zaterdag 2 / Veld 2B",2022-06-04,3,"Alliance '22 JO9-2","Geel Wit JO9-1",,,"2B",13:10,"Alliance"
"Zaterdag 2 / Veld 2B",2022-06-04,3,"AS ‘80 JO9-7","DWO JO9-2",,,"2B",13:35,"AS ‘80"
"Zaterdag 2 / Veld 2C",2022-06-04,3,"Alliance '22 JO9-3","Alliance '22 JO9-4",,,"2C",11:30,"Alliance"
"Zaterdag 2 / Veld 2C",2022-06-04,3,"DSS JO9-2","Voetbalschool Vedette JO9",,,"2C",11:55,"Vedette"
"Zaterdag 2 / Veld 2C",2022-06-04,3,"Voetbalschool Vedette JO9","Alliance '22 JO9-3",,,"2C",12:20,"Alliance"
"Zaterdag 2 / Veld 2C",2022-06-04,3,"Alliance '22 JO9-4","DSS JO9-2",,,"2C",12:45,"Vedette"
"Zaterdag 2 / Veld 2C",2022-06-04,3,"Alliance '22 JO9-3","DSS JO9-2",,,"2C",13:10,"Alliance"
"Zaterdag 2 / Veld 2C",2022-06-04,3,"Voetbalschool Vedette JO9","Alliance '22 JO9-4",,,"2C",13:35,"DSS"
"Zaterdag 2 / Veld 2D",2022-06-04,3,"Alliance '22 JO9-5","Alliance '22 JO9-6",,,"2D",11:30,"Alliance"
"Zaterdag 2 / Veld 2D",2022-06-04,3,"Zwanenburg JO9-3","Geel Wit JO9-4",,,"2D",11:55,"Geel Wit"
"Zaterdag 2 / Veld 2D",2022-06-04,3,"Geel Wit JO9-4","Alliance '22 JO9-5",,,"2D",12:20,"Alliance"
"Zaterdag 2 / Veld 2D",2022-06-04,3,"Alliance '22 JO9-6","Zwanenburg JO9-3",,,"2D",12:45,"Geel Wit"
"Zaterdag 2 / Veld 2D",2022-06-04,3,"Alliance '22 JO9-5","Zwanenburg JO9-3",,,"2D",13:10,"Alliance"
"Zaterdag 2 / Veld 2D",2022-06-04,3,"Geel Wit JO9-4","Alliance '22 JO9-6",,,"2D",13:35,"Zwanenburg"
"Zaterdag 2 / Veld 1",2022-06-04,3,"Alliance '22 JO13-3","Hillegom JO13-3",,,1,11:30," "
"Zaterdag 2 / Veld 1",2022-06-04,3,"sv Spakenburg JO13-2","Geel Wit JO13-3",,,1,11:55,"D. de Loor"
"Zaterdag 2 / Veld 1",2022-06-04,3,"Geel Wit JO13-3","Alliance '22 JO13-3",,,1,12:20," "
"Zaterdag 2 / Veld 1",2022-06-04,3,"Hillegom JO13-3","sv Spakenburg JO13-2",,,1,12:45,"D. de Loor"
"Zaterdag 2 / Veld 1",2022-06-04,3,"Alliance '22 JO13-3","sv Spakenburg JO13-2",,,1,13:10," "
"Zaterdag 2 / Veld 1",2022-06-04,3,"Geel Wit JO13-3","Hillegom JO13-3",,,1,13:35,"D. de Loor"
"Zaterdag 2 / Veld 3",2022-06-04,3,"Alliance '22 JO12-3","Alliance '22 JO12-4",,,3,11:30," "
"Zaterdag 2 / Veld 3",2022-06-04,3,"Reiger Boys JO12-3","Overbos JO12-2",,,3,11:55," "
"Zaterdag 2 / Veld 3",2022-06-04,3,"Overbos JO12-2","Alliance '22 JO12-3",,,3,12:20," "
"Zaterdag 2 / Veld 3",2022-06-04,3,"Alliance '22 JO12-4","Reiger Boys JO12-3",,,3,12:45," "
"Zaterdag 2 / Veld 3",2022-06-04,3,"Alliance '22 JO12-3","Reiger Boys JO12-3",,,3,13:10," "
"Zaterdag 2 / Veld 3",2022-06-04,3,"Overbos JO12-2","Alliance '22 JO12-4",,,3,13:35," "
"Zaterdag 3 / Veld 2A",2022-06-04,4,"Alliance '22 JO10-1","Alliance '22 JO10-2",,,"2A",14:30,"Alliance"
"Zaterdag 3 / Veld 2A",2022-06-04,4,"Geel Wit JO10-1","Vitesse ‘22 JO10-1",,,"2A",14:55,"Vitesse ‘22"
"Zaterdag 3 / Veld 2A",2022-06-04,4,"Vitesse ‘22 JO10-1","Alliance '22 JO10-1",,,"2A",15:20,"Alliance"
"Zaterdag 3 / Veld 2A",2022-06-04,4,"Alliance '22 JO10-2","Geel Wit JO10-1",,,"2A",15:45,"Vitesse ‘22"
"Zaterdag 3 / Veld 2A",2022-06-04,4,"Alliance '22 JO10-1","Geel Wit JO10-1",,,"2A",16:10,"Alliance"
"Zaterdag 3 / Veld 2A",2022-06-04,4,"Vitesse ‘22 JO10-1","Alliance '22 JO10-2",,,"2A",16:35,"Geel Wit"
"Zaterdag 3 / Veld 2B",2022-06-04,4,"Alliance '22 JO10-3","Alliance '22 JO10-4",,,"2B",14:30,"Alliance"
"Zaterdag 3 / Veld 2B",2022-06-04,4,"Forza Almere JO10-1","FC Lisse JO10-4",,,"2B",14:55,"FC Lisse"
"Zaterdag 3 / Veld 2B",2022-06-04,4,"FC Lisse JO10-4","Alliance '22 JO10-3",,,"2B",15:20,"Alliance"
"Zaterdag 3 / Veld 2B",2022-06-04,4,"Alliance '22 JO10-4","Forza Almere JO10-1",,,"2B",15:45,"FC Lisse"
"Zaterdag 3 / Veld 2B",2022-06-04,4,"Alliance '22 JO10-3","Forza Almere JO10-1",,,"2B",16:10,"Alliance"
"Zaterdag 3 / Veld 2B",2022-06-04,4,"FC Lisse JO10-4","Alliance '22 JO10-4",,,"2B",16:35,"Forza Almere"
"Zaterdag 3 / Veld 2C",2022-06-04,4,"Alliance '22 JO10-5","Alliance '22 JO10-6",,,"2C",14:30,"Alliance"
"Zaterdag 3 / Veld 2C",2022-06-04,4,"Geel Wit JO10-6","Velsen JO10-1",,,"2C",14:55,"Velsen"
"Zaterdag 3 / Veld 2C",2022-06-04,4,"Velsen JO10-1","Alliance '22 JO10-5",,,"2C",15:20,"Alliance"
"Zaterdag 3 / Veld 2C",2022-06-04,4,"Alliance '22 JO10-6","Geel Wit JO10-6",,,"2C",15:45,"Velsen"
"Zaterdag 3 / Veld 2C",2022-06-04,4,"Alliance '22 JO10-5","Geel Wit JO10-6",,,"2C",16:10,"Alliance"
"Zaterdag 3 / Veld 2C",2022-06-04,4,"Velsen JO10-1","Alliance '22 JO10-6",,,"2C",16:35,"Geel Wit"
"Zaterdag 3 / Veld 2D",2022-06-04,4,"Alliance '22 JO8-6","Alliance '22 JO9-7",,,"2D",14:30,"Alliance"
"Zaterdag 3 / Veld 2D",2022-06-04,4,"Geel Wit JO8-6","Velsen JO9-2",,,"2D",14:55,"Velsen"
"Zaterdag 3 / Veld 2D",2022-06-04,4,"Velsen JO9-2","Alliance '22 JO8-6",,,"2D",15:20,"Alliance"
"Zaterdag 3 / Veld 2D",2022-06-04,4,"Alliance '22 JO9-7","Geel Wit JO8-6",,,"2D",15:45,"Velsen"
"Zaterdag 3 / Veld 2D",2022-06-04,4,"Alliance '22 JO8-6","Geel Wit JO8-6",,,"2D",16:10,"Alliance"
"Zaterdag 3 / Veld 2D",2022-06-04,4,"Velsen JO9-2","Alliance '22 JO9-7",,,"2D",16:35,"Geel Wit"
"Zaterdag 3 / Veld 3",2022-06-04,4,"Alliance '22 JO11-5","Alliance '22 JO12-5",,,3,14:30," "
"Zaterdag 3 / Veld 3",2022-06-04,4,"DSS JO11-7","Reiger Boys JO12-5",,,3,14:55," "
"Zaterdag 3 / Veld 3",2022-06-04,4,"Reiger Boys JO12-5","Alliance '22 JO11-5",,,3,15:20," "
"Zaterdag 3 / Veld 3",2022-06-04,4,"Alliance '22 JO12-5","DSS JO11-7",,,3,15:45," "
"Zaterdag 3 / Veld 3",2022-06-04,4,"Alliance '22 JO11-5","DSS JO11-7",,,3,16:10," "
"Zaterdag 3 / Veld 3",2022-06-04,4,"Reiger Boys JO12-5","Alliance '22 JO12-5",,,3,16:35," "
"Zaterdag 3 / Veld 1",2022-06-04,4,"Alliance '22 JO13-2","WV HEDW JO13-4",,,1,14:30,"D. de Loor"
"Zaterdag 3 / Veld 1",2022-06-04,4,"Bloemendaal JO13-3","SVW ‘27 JO13-3",,,1,14:55," "
"Zaterdag 3 / Veld 1",2022-06-04,4,"SVW ‘27 JO13-3","Alliance '22 JO13-2",,,1,15:20,"D. de Loor"
"Zaterdag 3 / Veld 1",2022-06-04,4,"WV HEDW JO13-4","Bloemendaal JO13-3",,,1,15:45," "
"Zaterdag 3 / Veld 1",2022-06-04,4,"Alliance '22 JO13-2","Bloemendaal JO13-3",,,1,16:10,"D. de Loor"
"Zaterdag 3 / Veld 1",2022-06-04,4,"SVW ‘27 JO13-3","WV HEDW JO13-4",,,1,16:35," "
"Zondag 1 / Veld 1",2022-06-05,5,"Alliance '22 JO13-1","Fortuna Wormerveer JO13-2",,,1,09:00,"Humphrey"
"Zondag 1 / Veld 1",2022-06-05,5,"WV HEDW JO13-3","KFC JO13-2",,,1,09:25," "
"Zondag 1 / Veld 1",2022-06-05,5,"KFC JO13-2","Alliance '22 JO13-1",,,1,09:50,"Humphrey"
"Zondag 1 / Veld 1",2022-06-05,5,"Fortuna Wormerveer JO13-2","WV HEDW JO13-3",,,1,10:15," "
"Zondag 1 / Veld 1",2022-06-05,5,"Alliance '22 JO13-1","WV HEDW JO13-3",,,1,10:40,"Humphrey"
"Zondag 1 / Veld 1",2022-06-05,5,"KFC JO13-2","Fortuna Wormerveer JO13-2",,,1,11:05," "
"Zondag 1 / Veld 2",2022-06-05,5,"Alliance '22 JO14-2","DSK JO14-1",,,2,09:00,"Mike"
"Zondag 1 / Veld 2",2022-06-05,5,"AFC IJburg JO14-4","DSS JO14-5",,,2,09:25," "
"Zondag 1 / Veld 2",2022-06-05,5,"DSS JO14-5","Alliance '22 JO14-2",,,2,09:50,"Mike"
"Zondag 1 / Veld 2",2022-06-05,5,"DSK JO14-1","AFC IJburg JO14-4",,,2,10:15," "
"Zondag 1 / Veld 2",2022-06-05,5,"Alliance '22 JO14-2","AFC IJburg JO14-4",,,2,10:40,"Mike"
"Zondag 1 / Veld 2",2022-06-05,5,"DSS JO14-5","DSK JO14-1",,,2,11:05," "
"Zondag 1 / Veld 3",2022-06-05,5,"Alliance '22 JO12-2","DSS JO12-3",,,3,09:00," "
"Zondag 1 / Veld 3",2022-06-05,5,"a.v.v. Sloterdijk JO12-1","Onze Gezellen JO12-2",,,3,09:25," "
"Zondag 1 / Veld 3",2022-06-05,5,"Onze Gezellen JO12-2","Alliance '22 JO12-2",,,3,09:50," "
"Zondag 1 / Veld 3",2022-06-05,5,"DSS JO12-3","a.v.v. Sloterdijk JO12-1",,,3,10:15," "
"Zondag 1 / Veld 3",2022-06-05,5,"Alliance '22 JO12-2","a.v.v. Sloterdijk JO12-1",,,3,10:40," "
"Zondag 1 / Veld 3",2022-06-05,5,"Onze Gezellen JO12-2","DSS JO12-3",,,3,11:05," "
"Zondag 2 / Veld 1",2022-06-05,6,"Alliance '22 MO15-2","FC Purmerend MO15-2",,,1,11:45,"S. van der Loef"
"Zondag 2 / Veld 1",2022-06-05,6,"Always Forward MO13-2","SC Excelsior MO13-1",,,1,12:10," "
"Zondag 2 / Veld 1",2022-06-05,6,"SC Excelsior MO13-1","Alliance '22 MO15-2",,,1,12:35,"S. van der Loef"
"Zondag 2 / Veld 1",2022-06-05,6,"FC Purmerend MO15-2","Always Forward MO13-2",,,1,13:00," "
"Zondag 2 / Veld 1",2022-06-05,6,"Alliance '22 MO15-2","Always Forward MO13-2",,,1,13:25,"S. van der Loef"
"Zondag 2 / Veld 1",2022-06-05,6,"SC Excelsior MO13-1","FC Purmerend MO15-2",,,1,13:50," "
"Zondag 2 / Veld 2",2022-06-05,6,"Alliance '22 MO13-2","DIOS MO13-1",,,2,11:45,"Humphrey"
"Zondag 2 / Veld 2",2022-06-05,6,"SC ‘t Gooi MO13-1","Vrone MO12 1/2",,,2,12:10,"Mike"
"Zondag 2 / Veld 2",2022-06-05,6,"Vrone MO12 1/2","Alliance '22 MO13-2",,,2,12:35,"Humphrey"
"Zondag 2 / Veld 2",2022-06-05,6,"DIOS MO13-1","SC ‘t Gooi MO13-1",,,2,13:00,"Mike"
"Zondag 2 / Veld 2",2022-06-05,6,"Alliance '22 MO13-2","SC ‘t Gooi MO13-1",,,2,13:25,"Humphrey"
"Zondag 2 / Veld 2",2022-06-05,6,"Vrone MO12 1/2","DIOS MO13-1",,,2,13:50,"Mike"
"Zondag 2 / Veld 3",2022-06-05,6,"Alliance '22 MO11-2","Swift MO11-1",,,3,11:45," "
"Zondag 2 / Veld 3",2022-06-05,6,"Geel Wit MO11-1","KFC MO11-2",,,3,12:10," "
"Zondag 2 / Veld 3",2022-06-05,6,"KFC MO11-2","Alliance '22 MO11-2",,,3,12:35," "
"Zondag 2 / Veld 3",2022-06-05,6,"Swift MO11-1","Geel Wit MO11-1",,,3,13:00," "
"Zondag 2 / Veld 3",2022-06-05,6,"Alliance '22 MO11-2","Geel Wit MO11-1",,,3,13:25," "
"Zondag 2 / Veld 3",2022-06-05,6,"KFC MO11-2","Swift MO11-1",,,3,13:50," "
"Zondag 3 / Veld 1",2022-06-05,7,"Alliance '22 MO13-1","Voorschoten MO13-1",,,1,14:30,"Humphrey"
"Zondag 3 / Veld 1",2022-06-05,7,"Kon. HFC MO13-1","Zeeburgia MO13-2",,,1,14:55,"Mike"
"Zondag 3 / Veld 1",2022-06-05,7,"Zeeburgia MO13-2","Alliance '22 MO13-1",,,1,15:20,"Humphrey"
"Zondag 3 / Veld 1",2022-06-05,7,"Voorschoten MO13-1","Kon. HFC MO13-1",,,1,15:45,"Mike"
"Zondag 3 / Veld 1",2022-06-05,7,"Alliance '22 MO13-1","Kon. HFC MO13-1",,,1,16:10,"Humphrey"
"Zondag 3 / Veld 1",2022-06-05,7,"Zeeburgia MO13-2","Voorschoten MO13-1",,,1,16:35,"Mike"
"Zondag 3 / Veld 2",2022-06-05,7,"Alliance '22 MO15-1","Overbos MO15-1",,,2,14:30,"S. van der Loef"
"Zondag 3 / Veld 2",2022-06-05,7,"FC Purmerend MO15-1","SC Excelsior MO14-1",,,2,14:55," "
"Zondag 3 / Veld 2",2022-06-05,7,"SC Excelsior MO14-1","Alliance '22 MO15-1",,,2,15:20,"S. van der Loef"
"Zondag 3 / Veld 2",2022-06-05,7,"Overbos MO15-1","FC Purmerend MO15-1",,,2,15:45," "
"Zondag 3 / Veld 2",2022-06-05,7,"Alliance '22 MO15-1","FC Purmerend MO15-1",,,2,16:10,"S. van der Loef"
"Zondag 3 / Veld 2",2022-06-05,7,"SC Excelsior MO14-1","Overbos MO15-1",,,2,16:35," "
"Zondag 3 / Veld 3",2022-06-05,7,"Alliance '22 MO11-1","Atletico Club A’dam MO11-1",,,3,14:30," "
"Zondag 3 / Veld 3",2022-06-05,7,"Waterwijk MO11-1","Zeeburgia MO11-1",,,3,14:55," "
"Zondag 3 / Veld 3",2022-06-05,7,"Zeeburgia MO11-1","Alliance '22 MO11-1",,,3,15:20," "
"Zondag 3 / Veld 3",2022-06-05,7,"Atletico Club A’dam MO11-1","Waterwijk MO11-1",,,3,15:45," "
"Zondag 3 / Veld 3",2022-06-05,7,"Alliance '22 MO11-1","Waterwijk MO11-1",,,3,16:10," "
"Zondag 3 / Veld 3",2022-06-05,7,"Zeeburgia MO11-1","Atletico Club A’dam MO11-1",,,3,16:35," "