"id";"poule_id";"name";"played";"points";"win";"equal";"loose";"goals";"against";"rank"
"1";"1";"Liverpool";"1";"0";"0";"0";"1";"4";"5";"3"
"2";"1";"Bayern Munchen";"1";"0";"0";"0";"1";"1";"2";"4"
"3";"1";"Benfica";"1";"3";"1";"0";"0";"2";"1";"2"
"4";"1";"AC Milan";"1";"3";"1";"0";"0";"5";"4";"1"
"5";"2";"Galatasaray";"1";"1";"0";"1";"0";"3";"3";"3"
"6";"2";"Chelsea";"1";"0";"0";"0";"1";"3";"4";"4"
"7";"2";"Schalke '04";"1";"3";"1";"0";"0";"4";"3";"1"
"8";"2";"Feyenoord";"1";"1";"0";"1";"0";"3";"3";"2"
"9";"3";"Real Madrid";"0";"0";"0";"0";"0";"0";"0";NULL
"10";"3";"Paris SG";"0";"0";"0";"0";"0";"0";"0";NULL
"11";"3";"AZ";"0";"0";"0";"0";"0";"0";"0";NULL
"12";"3";"Man. United";"0";"0";"0";"0";"0";"0";"0";NULL
"13";"4";"Porto";"0";"0";"0";"0";"0";"0";"0";NULL
"14";"4";"Ajax";"0";"0";"0";"0";"0";"0";"0";NULL
"15";"4";"Juventus";"0";"0";"0";"0";"0";"0";"0";NULL
"16";"4";"Dortmund";"0";"0";"0";"0";"0";"0";"0";NULL
"17";"5";"PSV";"0";"0";"0";"0";"0";"0";"0";NULL
"18";"5";"Dynamo Kiev";"0";"0";"0";"0";"0";"0";"0";NULL
"19";"5";"Arsenal";"0";"0";"0";"0";"0";"0";"0";NULL
"20";"5";"Barcelona";"0";"0";"0";"0";"0";"0";"0";NULL
"21";"6";"Alliance F1";"3";"7";"2";"1";"0";"8";"2";"1"
"22";"6";"Alliance F2";"3";"1";"0";"1";"2";"2";"7";"4"
"23";"6";"Overbos F1";"3";"5";"1";"2";"0";"5";"3";"2"
"24";"6";"Hillegom F1";"3";"3";"1";"0";"2";"4";"7";"3"
"25";"7";"Alliance F3";"3";"3";"1";"0";"2";"2";"5";"3"
"26";"7";"Alliance F4";"3";"1";"0";"1";"2";"1";"9";"4"
"27";"7";"Spaarnwoude F1";"3";"4";"1";"1";"1";"2";"2";"2"
"28";"7";"Overbos F3";"3";"9";"3";"0";"0";"11";"0";"1"
"29";"8";"Alliance F5";"3";"1";"0";"1";"2";"2";"6";"3"
"30";"8";"Alliance F6";"3";"1";"0";"1";"2";"1";"15";"4"
"31";"8";"Overbos F6";"3";"7";"2";"1";"0";"10";"2";"2"
"32";"8";"H'lem Kennemerland F1";"3";"7";"2";"1";"0";"13";"3";"1"
"33";"9";"Alliance F7";"3";"1";"0";"1";"2";"3";"5";"4"
"34";"9";"Alliance F8";"3";"6";"2";"0";"1";"6";"5";"1"
"35";"9";"Overbos F7";"3";"4";"1";"1";"1";"6";"4";"3"
"36";"9";"Overbos F8";"3";"6";"2";"0";"1";"3";"4";"2"
"37";"10";"Alliance F9";"3";"6";"2";"0";"1";"11";"3";"1"
"38";"10";"Alliance F10";"3";"3";"1";"0";"2";"3";"13";"4"
"39";"10";"Alliance F11";"3";"6";"2";"0";"1";"6";"2";"2"
"40";"10";"DSS F14";"3";"3";"1";"0";"2";"3";"5";"3"
"41";"11";"Alliance E1";"3";"6";"2";"0";"1";"3";"5";"2"
"42";"11";"Onze Gezellen E1";"3";"1";"0";"1";"2";"0";"7";"4"
"43";"11";"Bloemendaal E1";"3";"1";"0";"1";"2";"0";"4";"3"
"44";"11";"UNO E1";"3";"9";"3";"0";"0";"13";"0";"1"
"45";"12";"Alliance E2";"3";"6";"2";"0";"1";"8";"8";"2"
"46";"12";"Alliance E3";"3";"6";"2";"0";"1";"9";"3";"1"
"47";"12";"Alliance E4";"3";"0";"0";"0";"3";"4";"10";"4"
"48";"12";"DSS E5";"3";"6";"2";"0";"1";"5";"5";"3"
"49";"13";"Alliance E5";"3";"6";"2";"0";"1";"6";"3";"2"
"50";"13";"Alliance E6";"3";"6";"2";"0";"1";"9";"4";"1"
"51";"13";"Alliance E7";"3";"3";"1";"0";"2";"3";"6";"3"
"52";"13";"Maarssen E7";"3";"3";"1";"0";"2";"3";"8";"4"
"53";"14";"Alliance E8";"3";"9";"3";"0";"0";"11";"3";"1"
"54";"14";"Alliance E9";"3";"3";"1";"0";"2";"2";"9";"3"
"55";"14";"Alliance E10";"3";"0";"0";"0";"3";"0";"10";"4"
"56";"14";"DSS E10";"3";"6";"2";"0";"1";"14";"5";"2"
"57";"15";"Alliance ME1";"3";"4";"1";"1";"1";"4";"2";"2"
"58";"15";"Alliance ME2";"3";"4";"1";"1";"1";"2";"5";"3"
"59";"15";"Vitesse '22 ME1";"3";"0";"0";"0";"3";"0";"18";"4"
"60";"15";"Buitenveldert ME2";"3";"9";"3";"0";"0";"19";"0";"1"
"61";"16";"Alliance D1";"3";"6";"2";"0";"1";"7";"2";"2"
"62";"16";"Alliance D2";"3";"3";"1";"0";"2";"3";"7";"3"
"63";"16";"Alliance D3";"3";"0";"0";"0";"3";"3";"8";"4"
"64";"16";"DSS D3";"3";"9";"3";"0";"0";"8";"4";"1"
"65";"17";"Alliance D4";"3";"6";"2";"0";"1";"4";"3";"2"
"66";"17";"Alliance D5";"3";"0";"0";"0";"3";"2";"5";"4"
"67";"17";"Alliance D6";"3";"3";"1";"0";"2";"2";"6";"3"
"68";"17";"DSS D7";"3";"9";"3";"0";"0";"6";"0";"1"
"69";"18";"Alliance MD1";"3";"7";"2";"1";"0";"7";"0";"1"
"70";"18";"Hillegom MD1";"3";"7";"2";"1";"0";"6";"0";"2"
"71";"18";"Texel '94 MD1";"3";"3";"1";"0";"2";"3";"5";"3"
"72";"18";"Hoofddorp MD1";"3";"0";"0";"0";"3";"0";"11";"4"
"73";"19";"Alliance C1";"3";"7";"2";"1";"0";"8";"2";"2"
"74";"19";"Alliance C2";"3";"0";"0";"0";"3";"1";"11";"4"
"75";"19";"DSS C1";"3";"7";"2";"1";"0";"10";"3";"1"
"76";"19";"ASC Waterwijk C2";"3";"3";"1";"0";"2";"3";"6";"3"
"77";"20";"Alliance C3";"3";"5";"1";"2";"0";"2";"0";"2"
"78";"20";"Alliance C4";"3";"7";"2";"1";"0";"3";"1";"1"
"79";"20";"Alliance C5";"3";"0";"0";"0";"3";"0";"4";"4"
"80";"20";"DSS C4";"3";"4";"1";"1";"1";"2";"2";"3"
"81";"21";"Alliance MC1";"3";"7";"2";"1";"0";"10";"0";"1"
"82";"21";"Vitesse '22 MC1";"3";"3";"1";"0";"2";"2";"10";"3"
"83";"21";"Nieuwerkerk MC2";"3";"0";"0";"0";"3";"1";"11";"4"
"84";"21";"Buitenveldert MC2";"3";"7";"2";"1";"0";"8";"0";"2"
