poule,datum,diashow,team1,team2,score1,score2,veld,tijd,scheidsrechter
"C1 (JO15)",2019-06-07,,"Alliance O15-1","Sporting Krommenie O15-1",,,1,18:00,
"C1 (JO15)",2019-06-07,,"Reiger Boys O15-3","WSV`30 O15-1",,,2,18:00,
"C1 (JO15)",2019-06-07,,"Sporting Krommenie O15-1","Reiger Boys O15-3",,,1,18:25,
"C1 (JO15)",2019-06-07,,"WSV`30 O15-1","Alliance O15-1",,,2,18:25,
"C1 (JO15)",2019-06-07,,"Alliance O15-1","Reiger Boys O15-3",,,1,19:15,
"C1 (JO15)",2019-06-07,,"WSV`30 O15-1","Sporting Krommenie O15-1",,,2,19:15,
"C2 (JO15)",2019-06-07,,"Alliance O15-2","Buitenveldert O15-2",,,1,18:50,
"C2 (JO15)",2019-06-07,,"Bloemendaal O15-2","Kon. HFC O15-4",,,2,18:50,
"C2 (JO15)",2019-06-07,,"Buitenveldert O15-2","Bloemendaal O15-2",,,1,19:40,
"C2 (JO15)",2019-06-07,,"Kon. HFC O15-4","Alliance O15-2",,,2,19:40,
"C2 (JO15)",2019-06-07,,"Alliance O15-2","Bloemendaal O15-2",,,1,20:30,
"C2 (JO15)",2019-06-07,,"Kon. HFC O15-4","Buitenveldert O15-2",,,2,20:30,
"C3 (JO15)",2019-06-07,,"Alliance O15-3","Reiger Boys O15-4",,,1,20:05,
"C3 (JO15)",2019-06-07,,"AFC`34 O15-3","United Davo O15-1",,,2,20:05,
"C3 (JO15)",2019-06-07,,"Reiger Boys O15-4","AFC`34 O15-3",,,1,20:55,
"C3 (JO15)",2019-06-07,,"United Davo O15-1","Alliance O15-3",,,2,20:55,
"C3 (JO15)",2019-06-07,,"Alliance O15-3","AFC`34 O15-3",,,1,21:20,
"C3 (JO15)",2019-06-07,,"United Davo O15-1","Reiger Boys O15-4",,,2,21:20,
"D1 (JO12-JO13)",2019-06-07,,"Alliance O12-1","DIO O12-1",,,3,18:00,
"D1 (JO12-JO13)",2019-06-07,,"Sporting Krommenie O12-1","FC Oegstgeest O12-1",,,3,18:25,
"D1 (JO12-JO13)",2019-06-07,,"DIO O12-1","Sporting Krommenie O12-1",,,3,18:50,
"D1 (JO12-JO13)",2019-06-07,,"FC Oegstgeest O12-1","Alliance O12-1",,,3,19:15,
"D1 (JO12-JO13)",2019-06-07,,"Alliance O12-1","Sporting Krommenie O12-1",,,3,19:40,
"D1 (JO12-JO13)",2019-06-07,,"FC Oegstgeest O12-1","DIO O12-1",,,3,20:05,
"F1 (JO8-JO9)",2019-06-08,,"Alliance O8-1","WV HEDW O8-2",,,2A,08:30,
"F1 (JO8-JO9)",2019-06-08,,"Zaanlandia O8-1","Geel Wit O8-1",,,2A,08:55,
"F1 (JO8-JO9)",2019-06-08,,"WV HEDW O8-2","Zaanlandia O8-1",,,2A,09:20,
"F1 (JO8-JO9)",2019-06-08,,"Geel Wit O8-1","Alliance O8-1",,,2A,09:45,
"F1 (JO8-JO9)",2019-06-08,,"Alliance O8-1","Zaanlandia O8-1",,,2A,10:10,
"F1 (JO8-JO9)",2019-06-08,,"Geel Wit O8-1","WV HEDW O8-2",,,2A,10:35,
"F2 (JO8-JO9)",2019-06-08,,"Alliance O8-2","WSV`30 O8-1",,,2B,08:30,
"F2 (JO8-JO9)",2019-06-08,,"Geel Wit O8-X","Alliance O8-5",,,2B,08:55,
"F2 (JO8-JO9)",2019-06-08,,"WSV`30 O8-1","Geel Wit O8-X",,,2B,09:20,
"F2 (JO8-JO9)",2019-06-08,,"Alliance O8-5","Alliance O8-2",,,2B,09:45,
"F2 (JO8-JO9)",2019-06-08,,"WSV`30 O8-1","Alliance O8-5",,,2B,10:10,
"F2 (JO8-JO9)",2019-06-08,,"Alliance O8-2","Geel Wit O8-X",,,2B,10:35,
"F3 (JO8-JO9)",2019-06-08,,"Alliance O8-3","DIO O8-1G",,,2C,08:30,
"F3 (JO8-JO9)",2019-06-08,,"DSOV O8-3","Alliance O8-4",,,2C,08:55,
"F3 (JO8-JO9)",2019-06-08,,"DIO O8-1G","DSOV O8-3",,,2C,09:20,
"F3 (JO8-JO9)",2019-06-08,,"Alliance O8-4","Alliance O8-3",,,2C,09:45,
"F3 (JO8-JO9)",2019-06-08,,"DIO O8-1G","Alliance O8-4",,,2C,10:10,
"F3 (JO8-JO9)",2019-06-08,,"Alliance O8-3","DSOV O8-3",,,2C,10:35,
"F4 (JO8-JO9)",2019-06-08,,"Alliance O8-6","Altius O8",,,2D,08:30,
"F4 (JO8-JO9)",2019-06-08,,"Geel Wit O8-3","Alliance O8-7",,,2D,08:55,
"F4 (JO8-JO9)",2019-06-08,,"Altius O8","Geel Wit O8-3",,,2D,09:20,
"F4 (JO8-JO9)",2019-06-08,,"Alliance O8-7","Alliance O8-6",,,2D,09:45,
"F4 (JO8-JO9)",2019-06-08,,"Altius O8","Alliance O8-7",,,2D,10:10,
"F4 (JO8-JO9)",2019-06-08,,"Alliance O8-6","Geel Wit O8-3",,,2D,10:35,
"E1-1 (JO10-JO11)",2019-06-08,,"Alliance O11-1","EDO O11-1",,,1A,08:30,
"E1-1 (JO10-JO11)",2019-06-08,,"RKDES O11-1","Hoofddorp O11-1",,,1A,08:55,
"E1-1 (JO10-JO11)",2019-06-08,,"EDO O11-1","RKDES O11-1",,,1A,09:20,
"E1-1 (JO10-JO11)",2019-06-08,,"Hoofddorp O11-1","Alliance O11-1",,,1A,09:45,
"E1-1 (JO10-JO11)",2019-06-08,,"Alliance O11-1","RKDES O11-1",,,1A,10:10,
"E1-1 (JO10-JO11)",2019-06-08,,"Hoofddorp O11-1","EDO O11-1",,,1A,10:35,
"E1-2 (JO10-JO11)",2019-06-08,,"Alliance O11-2","Onze Gezellen O11-3",,,1B,08:30,
"E1-2 (JO10-JO11)",2019-06-08,,"DIO O11-1","Haarlem Kennemerland O11-1",,,1B,08:55,
"E1-2 (JO10-JO11)",2019-06-08,,"Onze Gezellen O11-3","DIO O11-1",,,1B,09:20,
"E1-2 (JO10-JO11)",2019-06-08,,"Haarlem Kennemerland O11-1","Alliance O11-2",,,1B,09:45,
"E1-2 (JO10-JO11)",2019-06-08,,"Alliance O11-2","DIO O11-1",,,1B,10:10,
"E1-2 (JO10-JO11)",2019-06-08,,"Haarlem Kennemerland O11-1","Onze Gezellen O11-3",,,1B,10:35,
"E1-3 (JO10-JO11)",2019-06-08,,"Alliance O11-3","Geel Wit O11-2",,,3,08:30,
"E1-3 (JO10-JO11)",2019-06-08,,"RKAV Volendam O11-8","Alliance O11-4",,,3,08:55,
"E1-3 (JO10-JO11)",2019-06-08,,"Geel Wit O11-2","RKAV Volendam O11-8",,,3,09:20,
"E1-3 (JO10-JO11)",2019-06-08,,"Alliance O11-4","Alliance O11-3",,,3,09:45,
"E1-3 (JO10-JO11)",2019-06-08,,"Geel Wit O11-2","Alliance O11-4",,,3,10:10,
"E1-3 (JO10-JO11)",2019-06-08,,"Alliance O11-3","RKAV Volendam O11-8",,,3,10:35,
"F5 (JO8-JO9)",2019-06-08,,"Alliance O9-1","Spirit`30 O9-1",,,2A,11:30,
"F5 (JO8-JO9)",2019-06-08,,"RKDES O9-1","AGB O9-1",,,2A,11:55,
"F5 (JO8-JO9)",2019-06-08,,"Spirit`30 O9-1","RKDES O9-1",,,2A,12:20,
"F5 (JO8-JO9)",2019-06-08,,"AGB O9-1","Alliance O9-1",,,2A,12:45,
"F5 (JO8-JO9)",2019-06-08,,"Alliance O9-1","RKDES O9-1",,,2A,13:10,
"F5 (JO8-JO9)",2019-06-08,,"AGB O9-1","Spirit`30 O9-1",,,2A,13:35,
"F6 (JO8-JO9)",2019-06-08,,"Alliance O9-2","Spirit`30 O9-2",,,2B,11:30,
"F6 (JO8-JO9)",2019-06-08,,"EDO O9-2","Alliance O9-4",,,2B,11:55,
"F6 (JO8-JO9)",2019-06-08,,"Spirit`30 O9-2","EDO O9-2",,,2B,12:20,
"F6 (JO8-JO9)",2019-06-08,,"Alliance O9-4","Alliance O9-2",,,2B,12:45,
"F6 (JO8-JO9)",2019-06-08,,"Spirit`30 O9-2","Alliance O9-4",,,2B,13:10,
"F6 (JO8-JO9)",2019-06-08,,"Alliance O9-2","EDO O9-2",,,2B,13:35,
"F7 (JO8-JO9)",2019-06-08,,"Alliance O9-3","DIO O9-1",,,2C,11:30,
"F7 (JO8-JO9)",2019-06-08,,"Buitenboys O9-4","Alliance O9-5",,,2C,11:55,
"F7 (JO8-JO9)",2019-06-08,,"DIO O9-1","Buitenboys O9-4",,,2C,12:20,
"F7 (JO8-JO9)",2019-06-08,,"Alliance O9-5","Alliance O9-3",,,2C,12:45,
"F7 (JO8-JO9)",2019-06-08,,"DIO O9-1","Alliance O9-5",,,2C,13:10,
"F7 (JO8-JO9)",2019-06-08,,"Alliance O9-3","Buitenboys O9-4",,,2C,13:35,
"F8 (JO8-JO9)",2019-06-08,,"Alliance O9-6","Overbos O9-4",,,2D,11:30,
"F8 (JO8-JO9)",2019-06-08,,"Haarlem Kennemerland O9-4","Alliance O9-7",,,2D,11:55,
"F8 (JO8-JO9)",2019-06-08,,"Overbos O9-4","Haarlem Kennemerland O9-4",,,2D,12:20,
"F8 (JO8-JO9)",2019-06-08,,"Alliance O9-7","Alliance O9-6",,,2D,12:45,
"F8 (JO8-JO9)",2019-06-08,,"Overbos O9-4","Alliance O9-7",,,2D,13:10,
"F8 (JO8-JO9)",2019-06-08,,"Alliance O9-6","Haarlem Kennemerland O9-4",,,2D,13:35,
"D2 (JO12-JO13)",2019-06-08,,"Alliance O13-2","Geel Wit O13-2",,,1,11:30,
"D2 (JO12-JO13)",2019-06-08,,"Hertha O13-2","RCL O13-2",,,1,11:55,
"D2 (JO12-JO13)",2019-06-08,,"Geel Wit O13-2","Hertha O13-2",,,1,12:20,
"D2 (JO12-JO13)",2019-06-08,,"RCL O13-2","Alliance O13-2",,,1,12:45,
"D2 (JO12-JO13)",2019-06-08,,"Alliance O13-2","Hertha O13-2",,,1,13:10,
"D2 (JO12-JO13)",2019-06-08,,"RCL O13-2","Geel Wit O13-2",,,1,13:35,
"D3 (JO12 + JO13)",2019-06-08,,"Alliance O12-4","ADO`20 O12-2",,,3,11:30,
"D3 (JO12 + JO13)",2019-06-08,,"Kon. HFC O12-8","Alliance O12-5",,,3,11:55,
"D3 (JO12 + JO13)",2019-06-08,,"ADO`20 O12-2","Kon. HFC O12-8",,,3,12:20,
"D3 (JO12 + JO13)",2019-06-08,,"Alliance O12-5","Alliance O12-4",,,3,12:45,
"D3 (JO12 + JO13)",2019-06-08,,"ADO`20 O12-2","Alliance O12-5",,,3,13:10,
"D3 (JO12 + JO13)",2019-06-08,,"Alliance O12-4","Kon. HFC O12-8",,,3,13:35,
"E4 (JO10-JO11)",2019-06-08,,"Alliance O10-1","UNO O10-1",,," 2A",14:30,
"E4 (JO10-JO11)",2019-06-08,,"Buitenveldert O10-2","Hoofddorp O10-2",,," 2A",14:55,
"E4 (JO10-JO11)",2019-06-08,,"UNO O10-1","Buitenveldert O10-2",,," 2A",15:20,
"E4 (JO10-JO11)",2019-06-08,,"Hoofddorp O10-2","Alliance O10-1",,," 2A",15:45,
"E4 (JO10-JO11)",2019-06-08,,"Alliance O10-1","Buitenveldert O10-2",,," 2A",16:10,
"E4 (JO10-JO11)",2019-06-08,,"Hoofddorp O10-2","UNO O10-1",,," 2A",16:35,
"E5 (JO10-JO11)",2019-06-08,,"Alliance O10-2","WV HEDW O10-3",,," 2B",14:30,
"E5 (JO10-JO11)",2019-06-08,,"Pancratius O10-3","Haarlem Kennemerland O10-1",,," 2B",14:55,
"E5 (JO10-JO11)",2019-06-08,,"WV HEDW O10-3","Pancratius O10-3",,," 2B",15:20,
"E5 (JO10-JO11)",2019-06-08,,"Haarlem Kennemerland O10-1","Alliance O10-2",,," 2B",15:45,
"E5 (JO10-JO11)",2019-06-08,,"Alliance O10-2","Pancratius O10-3",,," 2B",16:10,
"E5 (JO10-JO11)",2019-06-08,,"Haarlem Kennemerland O10-1","WV HEDW O10-3",,," 2B",16:35,
"E6 (JO10-JO11)",2019-06-08,,"Alliance O10-3","DIO O10-1",,," 2C",14:30,
"E6 (JO10-JO11)",2019-06-08,,"Geel Wit O10-3","Kon. HFC O10-6",,," 2C",14:55,
"E6 (JO10-JO11)",2019-06-08,,"DIO O10-1","Geel Wit O10-3",,," 2C",15:20,
"E6 (JO10-JO11)",2019-06-08,,"Kon. HFC O10-6","Alliance O10-3",,," 2C",15:45,
"E6 (JO10-JO11)",2019-06-08,,"Alliance O10-3","Geel Wit O10-3",,," 2C",16:10,
"E6 (JO10-JO11)",2019-06-08,,"Kon. HFC O10-6","DIO O10-1",,," 2C",16:35,
"E7 (JO10-JO11)",2019-06-08,,"Alliance O10-4","Hillegom O10-5",,," 2D",14:30,
"E7 (JO10-JO11)",2019-06-08,,"Buitenboys O10-8","Alliance O10-5",,," 2D",14:55,
"E7 (JO10-JO11)",2019-06-08,,"Hillegom O10-5","Buitenboys O10-8",,," 2D",15:20,
"E7 (JO10-JO11)",2019-06-08,,"Alliance O10-5","Alliance O10-4",,," 2D",15:45,
"E7 (JO10-JO11)",2019-06-08,,"Hillegom O10-5","Alliance O10-5",,," 2D",16:10,
"E7 (JO10-JO11)",2019-06-08,,"Alliance O10-4","Buitenboys O10-8",,," 2D",16:35,
"D4 (JO12 + JO13)",2019-06-08,,"Alliance O12-2","Kon. HFC O12-3",,,3,14:30,
"D4 (JO12 + JO13)",2019-06-08,,"HBC O12-3","Alliance O12-3",,,3,14:55,
"D4 (JO12 + JO13)",2019-06-08,,"Kon. HFC O12-3","HBC O12-3",,,3,15:20,
"D4 (JO12 + JO13)",2019-06-08,,"Alliance O12-3","Alliance O12-2",,,3,15:45,
"D4 (JO12 + JO13)",2019-06-08,,"Kon. HFC O12-3","Alliance O12-3",,,3,16:10,
"D4 (JO12 + JO13)",2019-06-08,,"Alliance O12-2","HBC O12-3",,,3,16:35,
"D5 (JO12 + JO13)",2019-06-08,,"Alliance O13-3","Onze Gezellen O13-3",,,1,14:30,
"D5 (JO12 + JO13)",2019-06-08,,"Legmeervogels O13-3","Sterrenwijk O13-1",,,1,14:55,
"D5 (JO12 + JO13)",2019-06-08,,"Onze Gezellen O13-3","Legmeervogels O13-3",,,1,15:20,
"D5 (JO12 + JO13)",2019-06-08,,"Sterrenwijk O13-1","Alliance O13-3",,,1,15:45,
"D5 (JO12 + JO13)",2019-06-08,,"Alliance O13-3","Legmeervogels O13-3",,,1,16:10,
"D5 (JO12 + JO13)",2019-06-08,,"Sterrenwijk O13-1","Onze Gezellen O13-3",,,1,16:35,
"C1 (JO14)",2019-06-09,,"Alliance O14-1","ODIN`59 O14-1",,,1,09:00,
"C1 (JO14)",2019-06-09,,"Roda`23 O14-1","FC Lisse O14-1",,,1,09:25,
"C1 (JO14)",2019-06-09,,"ODIN`59 O14-1","Roda`23 O14-1",,,1,09:50,
"C1 (JO14)",2019-06-09,,"FC Lisse O14-1","Alliance O14-1",,,1,10:15,
"C1 (JO14)",2019-06-09,,"Alliance O14-1","Roda`23 O14-1",,,1,10:40,
"C1 (JO14)",2019-06-09,,"FC Lisse O14-1","ODIN`59 O14-1",,,1,11:05,
"C2 (JO14)",2019-06-09,,"Alliance O14-3","Geel Wit O14-3",,,2,09:00,
"C2 (JO14)",2019-06-09,,"DEM O14-3","FC Weesp O14-2",,,2,09:25,
"C2 (JO14)",2019-06-09,,"Geel Wit O14-3","DEM O14-3",,,2,09:50,
"C2 (JO14)",2019-06-09,,"FC Weesp O14-2","Alliance O14-3",,,2,10:15,
"C2 (JO14)",2019-06-09,,"Alliance O14-3","DEM O14-3",,,2,10:40,
"C2 (JO14)",2019-06-09,,"FC Weesp O14-2","Geel Wit O14-3",,,2,11:05,
"Meiden O9-1",2019-06-09,,"Alliance JO9-8M","Desto JO9-9M",,," 3A",09:00,
"Meiden O9-1",2019-06-09,,"sv Rap JO9-5M","Tos Actief JO9-5M",,," 3A",09:25,
"Meiden O9-1",2019-06-09,,"Desto JO9-9M","sv Rap JO9-5M",,," 3A",09:50,
"Meiden O9-1",2019-06-09,,"Tos Actief JO9-5M","Alliance JO9-8M",,," 3A",10:15,
"Meiden O9-1",2019-06-09,,"Alliance JO9-8M","sv Rap JO9-5M",,," 3A",10:40,
"Meiden O9-1",2019-06-09,,"Tos Actief JO9-5M","Desto JO9-9M",,," 3A",11:05,
"Meiden O9-2",2019-06-09,,"De Meer JO9-4M","Vitesse`22 JO9-6M",,," 3B",09:00,
"Meiden O9-2",2019-06-09,,"Ijmuiden JO9-5M","Swift JO9-8M",,," 3B",09:25,
"Meiden O9-2",2019-06-09,,"Vitesse`22 JO9-6M","Ijmuiden JO9-5M",,," 3B",09:50,
"Meiden O9-2",2019-06-09,,"Swift JO9-8M","De Meer JO9-4M",,," 3B",10:15,
"Meiden O9-2",2019-06-09,,"De Meer JO9-4M","Ijmuiden JO9-5M",,," 3B",10:40,
"Meiden O9-2",2019-06-09,,"Swift JO9-8M","Vitesse`22 JO9-6M",,," 3B",11:05,
"Meiden O13",2019-06-09,,"Alliance MO13-1","AFC Ijburg MO13-3",,,1,11:45,
"Meiden O13",2019-06-09,,"Schagen MO13-1","Diemen MO13-1",,,1,12:10,
"Meiden O13",2019-06-09,,"AFC Ijburg MO13-3","Schagen MO13-1",,,1,12:35,
"Meiden O13",2019-06-09,,"Diemen MO13-1","Alliance MO13-1",,,1,13:00,
"Meiden O13",2019-06-09,,"Alliance MO13-1","Schagen MO13-1",,,1,13:25,
"Meiden O13",2019-06-09,,"Diemen MO13-1","AFC Ijburg MO13-3",,,1,13:50,
"C3 (JO14)",2019-06-09,,"Alliance O14-2","Oliveo O13-1",,,2,11:45,
"C3 (JO14)",2019-06-09,,"UNO O14-2","NVC O14-2",,,2,12:10,
"C3 (JO14)",2019-06-09,,"Oliveo O13-1","UNO O14-2",,,2,12:35,
"C3 (JO14)",2019-06-09,,"NVC O14-2","Alliance O14-2",,,2,13:00,
"C3 (JO14)",2019-06-09,,"Alliance O14-2","UNO O14-2",,,2,13:25,
"C3 (JO14)",2019-06-09,,"NVC O14-2","Oliveo O13-1",,,2,13:50,
"Meiden O11-1",2019-06-09,,"Alliance MO11-1","Ijmuiden MO11-1",,,3,11:45,
"Meiden O11-1",2019-06-09,,"Overbos MO11-1","Appleton Avengers U11",,,3,12:10,
"Meiden O11-1",2019-06-09,,"Ijmuiden MO11-1","Overbos MO11-1",,,3,12:35,
"Meiden O11-1",2019-06-09,,"Appleton Avengers U11","Alliance MO11-1",,,3,13:00,
"Meiden O11-1",2019-06-09,,"Alliance MO11-1","Overbos MO11-1",,,3,13:25,
"Meiden O11-1",2019-06-09,,"Appleton Avengers U11","Ijmuiden MO11-1",,,3,13:50,
"Meiden O15-2",2019-06-09,,"Alliance MO15-2","Kon. HFC MO15-1",,,1,14:30,
"Meiden O15-2",2019-06-09,,"DTS`35 MO15-2","DSS MO15-3",,,1,14:55,
"Meiden O15-2",2019-06-09,,"Kon. HFC MO15-1","DTS`35 MO15-2",,,1,15:20,
"Meiden O15-2",2019-06-09,,"DSS MO15-3","Alliance MO15-2",,,1,15:45,
"Meiden O15-2",2019-06-09,,"DSS MO15-3","Kon. HFC MO15-1",,,1,16:10,
"Meiden O15-2",2019-06-09,,"Alliance MO15-2","DTS`35 MO15-2",,,1,16:35,
"D6 (JO12-JO13)",2019-06-09,,"Alliance O13-1","FC Uitgeest O13-1",,,2,14:30,
"D6 (JO12-JO13)",2019-06-09,,"AFC Ijburg O13-1","Onze Gezellen O13-1",,,2,14:55,
"D6 (JO12-JO13)",2019-06-09,,"FC Uitgeest O13-1","AFC Ijburg O13-1",,,2,15:20,
"D6 (JO12-JO13)",2019-06-09,,"Onze Gezellen O13-1","Alliance O13-1",,,2,15:45,
"D6 (JO12-JO13)",2019-06-09,,"Alliance O13-1","AFC Ijburg O13-1",,,2,16:10,
"D6 (JO12-JO13)",2019-06-09,,"Onze Gezellen O13-1","FC Uitgeest O13-1",,,2,16:35,
"Meiden O11-2",2019-06-09,,"Alliance MO11-2","Swift MO11",,,3,14:30,
"Meiden O11-2",2019-06-09,,"Tos Actief MO11-2","Kon. HFC MO11-1",,,3,14:55,
"Meiden O11-2",2019-06-09,,"Swift MO11","Tos Actief MO11-2",,,3,15:20,
"Meiden O11-2",2019-06-09,,"Kon. HFC MO11-1","Alliance MO11-2",,,3,15:45,
"Meiden O11-2",2019-06-09,,"Alliance MO11-2","Tos Actief MO11-2",,,3,16:10,
"Meiden O11-2",2019-06-09,,"Kon. HFC MO11-1","Swift MO11",,,3,16:35,
